{
  "compilerOptions": {
    "target": "ES6",
    "emitDecoratorMetadata": true,
    "experimentalDecorators": true,
    "checkJs": true
  },
  "lib": ["dom", "es2017", "esnext.asynciterable"],
  "include": ["src/**/*.js"],
  "exclude": ["node_modules"]
}
